ANALISIS DE INDICADORES EMPRESAS 2014
…
18
apalancamiento
ACTIVO/PATRIMONIO
numérica

Con la base de datos obtenida, creamos una tabla para conocer el
número total de empresas por actividad económica y por actividad
económica por cada cantón:

empresas_por_canton <- balance %>% group_by(actividad,canton) %>% summarise(total_empresas=n()) %>% 
arrange(desc(total_empresas)) 
empresas_por_canton

# A tibble: 1,300 × 3
# Groups:   actividad [21]
   actividad                                               canton total_empresas
   <fct>                                                   <chr>           <int>
 1 COMERCIO AL POR MAYOR Y AL POR MENOR; REPARACIÓN DE VE… GUAYA…           5124
 2 ACTIVIDADES INMOBILIARIAS.                              GUAYA…           3956
 3 COMERCIO AL POR MAYOR Y AL POR MENOR; REPARACIÓN DE VE… QUITO            3860
 4 ACTIVIDADES PROFESIONALES, CIENTÍFICAS Y TÉCNICAS.      QUITO            2397
 5 ACTIVIDADES PROFESIONALES, CIENTÍFICAS Y TÉCNICAS.      GUAYA…           1987
 6 AGRICULTURA, GANADERÍA,  SILVICULTURA Y PESCA.          GUAYA…           1519
 7 CONSTRUCCIÓN.                                           GUAYA…           1511
 8 INDUSTRIAS MANUFACTURERAS.                              GUAYA…           1396
 9 INDUSTRIAS MANUFACTURERAS.                              QUITO            1249
10 ACTIVIDADES DE SERVICIOS ADMINISTRATIVOS Y DE APOYO.    QUITO            1152
# ℹ 1,290 more rows
…
